{
  "kind": "collectionType",
  "collectionName": "emails",
  "info": {
    "name": "Email"
  },
  "options": {
    "increments": true,
    "timestamps": true
  },
  "attributes": {
    "subject": {
      "type": "string",
      "required": true
    },
    "text": {
      "type": "richtext",
      "required": true
    }
  }
}
