<svg width="24" height="24" viewBox="0 0 24 24" fill="none" xmlns="http://www.w3.org/2000/svg">
<path d="M2 2L22 21.8217" stroke="#767B91" stroke-width="3" stroke-linecap="round" stroke-linejoin="round"/>
<path d="M2 22L22 2.17826" stroke="#767B91" stroke-width="3" stroke-linecap="round" stroke-linejoin="round"/>
</svg>
