<svg width="35" height="35" viewBox="0 0 35 35" fill="none" xmlns="http://www.w3.org/2000/svg">
<rect opacity="0.75" x="1" y="1" width="33" height="33" rx="6" stroke="white" stroke-width="2"/>
<g opacity="0.75">
<path d="M21.15 14.3999C20.3835 14.3973 19.6241 14.5458 18.9151 14.837C18.2061 15.1282 17.5615 15.5563 17.0182 16.0969C16.4748 16.6375 16.0434 17.2799 15.7485 17.9873C15.4537 18.6948 15.3013 19.4535 15.3 20.2199V26.0999C15.3 26.3386 15.3948 26.5676 15.5636 26.7363C15.7324 26.9051 15.9613 26.9999 16.2 26.9999H18.3C18.5387 26.9999 18.7676 26.9051 18.9364 26.7363C19.1052 26.5676 19.2 26.3386 19.2 26.0999V20.2199C19.1998 19.9473 19.257 19.6778 19.368 19.4288C19.479 19.1798 19.6412 18.957 19.8441 18.7749C20.0469 18.5928 20.2859 18.4555 20.5453 18.3719C20.8048 18.2884 21.079 18.2604 21.35 18.2899C21.836 18.3512 22.2826 18.5886 22.6052 18.9572C22.9278 19.3259 23.1038 19.8001 23.1 20.2899V26.0999C23.1 26.3386 23.1948 26.5676 23.3636 26.7363C23.5324 26.9051 23.7613 26.9999 24 26.9999H26.1C26.3387 26.9999 26.5676 26.9051 26.7364 26.7363C26.9052 26.5676 27 26.3386 27 26.0999V20.2199C26.9987 19.4535 26.8462 18.6948 26.5514 17.9873C26.2566 17.2799 25.8252 16.6375 25.2818 16.0969C24.7385 15.5563 24.0939 15.1282 23.3849 14.837C22.6759 14.5458 21.9164 14.3973 21.15 14.3999Z" fill="white"/>
<path d="M12.6 15.3H9.9C9.40294 15.3 9 15.703 9 16.2V26.1C9 26.5971 9.40294 27 9.9 27H12.6C13.0971 27 13.5 26.5971 13.5 26.1V16.2C13.5 15.703 13.0971 15.3 12.6 15.3Z" fill="white"/>
<path d="M11.25 13.5C12.4926 13.5 13.5 12.4926 13.5 11.25C13.5 10.0074 12.4926 9 11.25 9C10.0074 9 9 10.0074 9 11.25C9 12.4926 10.0074 13.5 11.25 13.5Z" fill="white"/>
</g>
</svg>
